Place,Name,BirthDate,Sex,BirthYear,Age,Country,State,Equipment,Division,BodyweightKg,WeightClassKg,Squat1Kg,Squat2Kg,Squat3Kg,Best3SquatKg,Squat4Kg,Bench1Kg,Bench2Kg,Bench3Kg,Best3BenchKg,Bench4Kg,Deadlift1Kg,Deadlift2Kg,Deadlift3Kg,Best3DeadliftKg,Deadlift4Kg,TotalKg,Event
1,Fabiola Yasmin Gonzalez Mejia,,F,1982,41,,,Single-ply,Masters 1,50.6,52,80,92.5,-102.5,92.5,,-50,-55,55,55,,100,105,110,110,,257.5,SBD
1,Adriana Jaramillo Lara,,F,1979,44,,,Single-ply,Masters 1,73.6,76,160,170,-182.5,170,,62.5,70,-75,70,,150,155,162.5,162.5,,402.5,SBD
1,Cinthya Rodríguez Valladares,,F,2000,23,,,Single-ply,Open,55,57,105,107.5,-130,107.5,,57.5,-65,65,65,,115,130,-140,130,,302.5,SBD
1,Yessica Yajayra Ruiz Torres,,F,1988,36,,,Single-ply,Open,67.85,69,-182.5,182.5,192.5,192.5,,82.5,-87.5,-87.5,82.5,,190,195,200,200,,475,SBD
1,Malinallitzin Porras,,F,2002,21,,,Single-ply,Open,83.15,84,180,-190,190,190,,70,75,-80,75,,150,162.5,172.5,172.5,,437.5,SBD
1,Fabiola Yasmin Gonzalez Mejia,,F,1982,41,,,Single-ply,Masters 1,50.6,52,,,,,,-50,-55,55,55,,,,,,,55,B
1,Adriana Jaramillo Lara,,F,1979,44,,,Single-ply,Masters 1,73.6,76,,,,,,62.5,70,-75,70,,,,,,,70,B
1,María del Socorro Pérez Arteaga,,F,1959,64,,,Single-ply,Masters 3,61.45,63,,,,,,65,72.5,-75,72.5,,,,,,,72.5,B
1,Cinthya Rodríguez Valladares,,F,2000,23,,,Single-ply,Open,55,57,,,,,,57.5,-65,65,65,,,,,,,65,B
1,Yessica Yajayra Ruiz Torres,,F,1988,36,,,Single-ply,Open,67.85,69,,,,,,82.5,-87.5,-87.5,82.5,,,,,,,82.5,B
1,Samantha Nahomy Loaiza Delgado,,F,2007,16,,,Single-ply,Open,72.9,76,,,,,,55,-60,-60,55,,,,,,,55,B
1,Malinallitzin Porras,,F,2002,21,,,Single-ply,Open,83.15,84,,,,,,70,75,-80,75,,,,,,,75,B
1,Martha María Rodríguez,,F,1978,45,,,Raw,Masters 1,62.7,63,110,115,120.5,120.5,,52.5,57.5,-60,57.5,,125,132.5,140,140,,318,SBD
2,Karla Mireles,,F,1983,41,,,Raw,Masters 1,62.45,63,105,-120,-120,105,,45,-50,-50,45,,115,130,140,140,,290,SBD
1,María De Lourdes González Cervantes,,F,1984,40,,,Raw,Masters 1,67.55,69,120,125,132,132,,55,62.5,-67.5,62.5,,125,135,142.5,142.5,,337,SBD
2,Martha Erika Ortiz Mejia,,F,1978,45,,,Raw,Masters 1,66.2,69,115,125,-130,125,,-50,50,55,55,,130,137.5,-145,137.5,,317.5,SBD
1,María Elena Velasco Rojas,,F,1981,43,,,Raw,Masters 1,75.55,76,102.5,110,120,120,,45,-50,-50,45,,102.5,112.5,120,120,,285,SBD
1,Ana Silvia Chávez Lara,,F,1979,45,,,Raw,Masters 1,81.45,84,125,-130,-130,125,,47.5,-50,-50,47.5,,120,125,130,130,,302.5,SBD
1,Carmen Teresa Hernandez,,F,1977,46,,,Raw,Masters 1,103.5,84+,-175,182.5,187.5,187.5,,75,85,92.5,92.5,,175,190,-202.5,190,,470,SBD
1,Sonia Ramos,,F,1970,53,,,Raw,Masters 2,76.35,84,130,135,137.5,137.5,,65,-67.5,-67.5,65,,137.5,145,150,150,,352.5,SBD
1,Teresa De Jesús Robaldino Narváez,,F,1961,62,,,Raw,Masters 3,68.25,69,-105,105,107.5,107.5,,52.5,55,-57.5,55,,107.5,112.5,117.5,117.5,,280,SBD
1,Martha María Rodríguez,,F,1978,45,,,Raw,Masters 1,62.7,63,,,,,,52.5,57.5,-60,57.5,,,,,,,57.5,B
2,Karla Mireles,,F,1983,41,,,Raw,Masters 1,62.45,63,,,,,,45,-50,-50,45,,,,,,,45,B
1,María De Lourdes González Cervantes,,F,1984,40,,,Raw,Masters 1,67.55,69,,,,,,55,62.5,-67.5,62.5,,,,,,,62.5,B
2,Martha Erika Ortiz Mejia,,F,1978,45,,,Raw,Masters 1,66.2,69,,,,,,-50,50,55,55,,,,,,,55,B
1,María Elena Velasco Rojas,,F,1981,43,,,Raw,Masters 1,75.55,76,,,,,,45,-50,-50,45,,,,,,,45,B
1,Ana Silvia Chávez Lara,,F,1979,45,,,Raw,Masters 1,81.45,84,,,,,,47.5,-50,-50,47.5,,,,,,,47.5,B
1,Carmen Teresa Hernandez,,F,1977,46,,,Raw,Masters 1,103.5,84+,,,,,,75,85,92.5,92.5,,,,,,,92.5,B
1,Sonia Ramos,,F,1970,53,,,Raw,Masters 2,76.35,84,,,,,,65,-67.5,-67.5,65,,,,,,,65,B
1,Teresa De Jesús Robaldino Narváez,,F,1961,62,,,Raw,Masters 3,68.25,69,,,,,,52.5,55,-57.5,55,,,,,,,55,B
1,Marco Reyes,,M,1980,44,,,Single-ply,Masters 1,87.4,93,235,240,245,245,,135,142.5,-147,142.5,,190,200,210,210,,597.5,SBD
DQ,José Manuel Loaiza Flores,,M,1983,41,,,Single-ply,Masters 1,91.75,93,,,,,,-100,100,-120,100,,,,,,,,SBD
1,Marco A Porras,,M,1982,42,,,Single-ply,Masters 1,117,120,305,315,325,325,,212.5,220,225,225,,240,255,267.5,267.5,,817.5,SBD
1,Gustavo Adolfo Moreno Martinez,,M,1967,56,,,Single-ply,Masters 2,85.1,93,180,200,210,210,,120,130,-140,130,,230,250,265,265,,605,SBD
1,Luis Antonio Ramírez Ochoa,,M,1965,58,,,Single-ply,Masters 2,110.1,120,220,235,250,250,,155,170,175,175,,200,215,220,220,,645,SBD
1,Ruben El Perro Hdez,,M,1969,54,,,Single-ply,Masters 2,123.1,120+,-150,160,180,180,,130,140,-150,140,,150,170,200,200,,520,SBD
1,Jesus Rivas,,M,1989,34,,,Single-ply,Open,53.65,59,-100,100,120,120,,70,75,80,80,,125,135,150,150,,350,SBD
1,Josue Liceaga,,M,2000,23,,,Single-ply,Open,72.9,74,195,197.5,200,200,,107.5,112.5,115,115,,215,220,-230,220,,535,SBD
2,Victor Rodriguez Manjarrez,,M,1988,36,,,Single-ply,Open,73.75,74,-155,-165,165,165,,115,125,-127.5,125,,165,180,185,185,,475,SBD
1,Jonathan Alvarez,,M,1997,26,,,Single-ply,Open,81.9,83,-150,-150,150,150,,135,-145,-145,135,,130,137.5,-145,137.5,,422.5,SBD
DQ,Neri Vázquez,,M,1992,32,,,Single-ply,Open,81.7,83,200,-205,-207.5,200,,-122.5,-122.5,-122.5,,,190,200,-210,200,,,SBD
1,Jovani Vázquez García,,M,1994,29,,,Single-ply,Open,86.5,93,-210,210,220,220,,-150,-150,150,150,,215,225,232.5,232.5,,602.5,SBD
2,Alonso Gutiérrez Nájera,,M,2006,17,,,Single-ply,Open,85.15,93,200,215,222,222,,110,-120,-120,110,,200,210,220,220,,552,SBD
1,David Soriano,,M,1995,29,,,Single-ply,Open,98.7,105,-200,-215,215,215,,110,120,127.5,127.5,,175,185,-195,185,,527.5,SBD
DQ,Alfonso Neithan Soriano Lovera,,M,2001,22,,,Single-ply,Open,103,105,-200,-210,210,210,,-112.5,-112.5,-112.5,,,175,190,210,210,,,SBD
1,Rodrigo Martínez,,M,2002,21,,,Single-ply,Open,107.1,120,200,210,220,220,,120,130,140,140,,215,230,250,250,,610,SBD
1,Marco Reyes,,M,1980,44,,,Single-ply,Masters 1,87.4,93,,,,,,135,142.5,-147,142.5,,,,,,,142.5,B
2,José Manuel Loaiza Flores,,M,1983,41,,,Single-ply,Masters 1,91.75,93,,,,,,-100,100,-120,100,,,,,,,100,B
1,Marco A Porras,,M,1982,42,,,Single-ply,Masters 1,117,120,,,,,,212.5,220,225,225,,,,,,,225,B
1,Gustavo Adolfo Moreno Martinez,,M,1967,56,,,Single-ply,Masters 2,85.1,93,,,,,,120,130,-140,130,,,,,,,130,B
1,Luis Antonio Ramírez Ochoa,,M,1965,58,,,Single-ply,Masters 2,110.1,120,,,,,,155,170,175,175,,,,,,,175,B
1,Ruben El Perro Hdez,,M,1969,54,,,Single-ply,Masters 2,123.1,120+,,,,,,130,140,-150,140,,,,,,,140,B
1,Victor Rodriguez Manjarrez,,M,1988,36,,,Single-ply,Open,73.75,74,,,,,,115,125,-127.5,125,,,,,,,125,B
2,Josue Liceaga,,M,2000,23,,,Single-ply,Open,72.9,74,,,,,,107.5,112.5,115,115,,,,,,,115,B
1,Jonathan Alvarez,,M,1997,26,,,Single-ply,Open,81.9,83,,,,,,135,-145,-145,135,,,,,,,135,B
DQ,Neri Vázquez,,M,1992,32,,,Single-ply,Open,81.7,83,,,,,,-122.5,-122.5,-122.5,,,,,,,,,B
1,Jovani Vázquez García,,M,1994,29,,,Single-ply,Open,86.5,93,,,,,,-150,-150,150,150,,,,,,,150,B
2,Alonso Gutiérrez Nájera,,M,2006,17,,,Single-ply,Open,85.15,93,,,,,,110,-120,-120,110,,,,,,,110,B
1,David Soriano,,M,1995,29,,,Single-ply,Open,98.7,105,,,,,,110,120,127.5,127.5,,,,,,,127.5,B
DQ,Alfonso Neithan Soriano Lovera,,M,2001,22,,,Single-ply,Open,103,105,,,,,,-112.5,-112.5,-112.5,,,,,,,,,B
1,Rodrigo Martínez,,M,2002,21,,,Single-ply,Open,107.1,120,,,,,,120,130,140,140,,,,,,,140,B
1,José Alejandro Chalí González,,M,1983,40,,,Raw,Masters 1,65.95,66,150,160,-167.5,160,,92.5,95,100,100,,160,170,180,180,,440,SBD
1,Carlos Andrés Fernández Gamboa,,M,1982,41,,,Raw,Masters 1,74,74,-210,220,-225,220,,122.5,-130,132.5,132.5,,210,-220,-220,210,,562.5,SBD
2,Roberto Rocha,,M,1975,48,,,Raw,Masters 1,72.5,74,160,170,-180,170,,90,95,-100,95,,190,200,207.5,207.5,,472.5,SBD
3,Joan Manuel Mondragón Perez,,M,1975,49,,,Raw,Masters 1,73.95,74,127.5,135,140,140,,100,107.5,-112.5,107.5,,187.5,197.5,-202.5,197.5,,445,SBD
4,Argenis Saul Heredia,,M,1983,40,,,Raw,Masters 1,69.9,74,115,117.5,125,125,,75,80,82.5,82.5,,155,165,-170,165,,372.5,SBD
1,Alejandro Morales Nieto,,M,1978,45,,,Raw,Masters 1,82.9,83,185,195,205,205,,-125,125,127.5,127.5,,192.5,205,-225.5,205,,537.5,SBD
1,Cesar Pacheco Arzola,,M,1982,41,,,Raw,Masters 1,90.1,93,190,200,205,205,,150,155,160,160,,225,235,245,245,,610,SBD
2,Raymundo Martínez Cardona,,M,1983,40,,,Raw,Masters 1,92.45,93,175,177.5,185,185,,102.5,107.5,110,110,,210,225,-230,225,,520,SBD
3,Daniel Velázquez Rocha,,M,1974,49,,,Raw,Masters 1,90.2,93,-160,160,167.5,167.5,,95,102.5,-107.5,102.5,,180,187.5,197.5,197.5,,467.5,SBD
DQ,Martín Talamantes,,M,1975,49,,,Raw,Masters 1,,93,,,,,,,,,,,,,,,,,SBD
DQ,Abelardo González Rojas,,M,1979,45,,,Raw,Masters 1,92.95,93,,,,,,152.5,-157.5,157.5,157.5,,,,,,,,SBD
1,Israel Arrieta,,M,1980,44,,,Raw,Masters 1,101.1,105,270,-290,-290,270,,160,-170,170,170,,305,-320,,305,,745,SBD
2,Alberto Campos,,M,1979,44,,,Raw,Masters 1,100.8,105,240,-255,260,260,,165,175,-183.5,175,,230,242.5,-252.5,242.5,,677.5,SBD
3,Erik Estrada Perez,,M,1980,43,,,Raw,Masters 1,100,105,-240,240,242.5,242.5,,155,165,170,170,,230,240,245,245,,657.5,SBD
4,Adolfo Roman Medrano,,M,1978,45,,,Raw,Masters 1,104.9,105,240,250,-255,250,,-150,155,-162.5,155,,240,250,-260,250,,655,SBD
5,Omar Nava,,M,1980,43,,,Raw,Masters 1,104.9,105,-210,210,-225,210,,145,-150,155,155,,-210,210,227.5,227.5,,592.5,SBD
DQ,Irazu Velazquez,,M,1978,45,,,Raw,Masters 1,103.2,105,-175,-175,-175,,,140,145,-150,145,,205,210,215,215,,,SBD
1,Jonathan Macías Flores,,M,1982,42,,,Raw,Masters 1,116.6,120,260,-270,270,270,,150,160,166,166,,245,255,260,260,,696,SBD
2,Bernabé Cubas Vargas,,M,1977,46,,,Raw,Masters 1,119.8,120,250,-262.5,262.5,262.5,,140,147.5,150,150,,220,230,245,245,,657.5,SBD
3,German Cárdenas,,M,1983,40,,,Raw,Masters 1,110.9,120,195,205,-217.5,205,,135,145,152.5,152.5,,260,280,-290,280,,637.5,SBD
4,Guillermo Ortiz Caudillo,,M,1981,42,,,Raw,Masters 1,107,120,155,-165,-170,155,,75,80,-85,80,,180,190,195,195,,430,SBD
5,Juventino Aguilar,,M,1977,46,,,Raw,Masters 1,107.8,120,115,125,127.5,127.5,,95,100,102.5,102.5,,165,175,180,180,,410,SBD
1,Wilhem Leibnitz Guido Vilalta,,M,1974,50,,,Raw,Masters 2,58.65,59,120,135,142.5,142.5,,95,102.5,-107.5,102.5,,160,170,180,180,,425,SBD
1,Jose Martin Martinez Rodriguez,,M,1966,57,,,Raw,Masters 2,90.05,93,170,175,180,180,,90,95,100,100,,190,200,210,210,,490,SBD
1,Anibal Nava,,M,1970,54,,,Raw,Masters 2,101.5,105,200,210,220,220,,125,130,-132.5,130,,220,232.5,242.5,242.5,,592.5,SBD
1,Francisco Javier Castro Verdugo,,M,1966,57,,,Raw,Masters 2,113.6,120,85,90,100,100,,85,90,-100,90,,120,150,170,170,,360,SBD
1,Jose Ariel Delgado Gastelum,,M,1958,65,,,Raw,Masters 3,82.85,83,-150,150,155,155,,90,-95,-95,90,,155,160,170,170,,415,SBD
2,Jose Luis Monjaras Martinez,,M,1956,67,,,Raw,Masters 3,82.5,83,127.5,-132,-132,127.5,,55,60,65,65,,155,165,170,170,,362.5,SBD
1,José Alejandro Chalí González,,M,1983,40,,,Raw,Masters 1,65.95,66,,,,,,92.5,95,100,100,,,,,,,100,B
1,Carlos Andrés Fernández Gamboa,,M,1982,41,,,Raw,Masters 1,74,74,,,,,,122.5,-130,132.5,132.5,,,,,,,132.5,B
2,Joan Manuel Mondragón Perez,,M,1975,49,,,Raw,Masters 1,73.95,74,,,,,,100,107.5,-112.5,107.5,,,,,,,107.5,B
3,Roberto Rocha,,M,1975,48,,,Raw,Masters 1,72.5,74,,,,,,90,95,-100,95,,,,,,,95,B
4,Argenis Saul Heredia,,M,1983,40,,,Raw,Masters 1,69.9,74,,,,,,75,80,82.5,82.5,,,,,,,82.5,B
1,Alejandro Morales Nieto,,M,1978,45,,,Raw,Masters 1,82.9,83,,,,,,-125,125,127.5,127.5,,,,,,,127.5,B
2,Mario Ernesto Hernandez Perez,,M,1968,55,,,Raw,Masters 2,82.7,83,,,,,,95,102.5,-105,102.5,,,,,,,102.5,B
1,Cesar Pacheco Arzola,,M,1982,41,,,Raw,Masters 1,90.1,93,,,,,,150,155,160,160,,,,,,,160,B
2,Abelardo González Rojas,,M,1979,45,,,Raw,Masters 1,92.95,93,,,,,,152.5,-157.5,157.5,157.5,,,,,,,157.5,B
3,Raymundo Martínez Cardona,,M,1983,40,,,Raw,Masters 1,92.45,93,,,,,,102.5,107.5,110,110,,,,,,,110,B
4,Daniel Velázquez Rocha,,M,1974,49,,,Raw,Masters 1,90.2,93,,,,,,95,102.5,-107.5,102.5,,,,,,,102.5,B
DQ,Martín Talamantes,,M,1975,49,,,Raw,Masters 1,,93,,,,,,,,,,,,,,,,,B
1,Alberto Campos,,M,1979,44,,,Raw,Masters 1,100.8,105,,,,,,165,175,-183.5,175,,,,,,,175,B
2,Erik Estrada Perez,,M,1980,43,,,Raw,Masters 1,100,105,,,,,,155,165,170,170,,,,,,,170,B
3,Israel Arrieta,,M,1980,44,,,Raw,Masters 1,101.1,105,,,,,,160,-170,170,170,,,,,,,170,B
4,Adolfo Roman Medrano,,M,1978,45,,,Raw,Masters 1,104.9,105,,,,,,-150,155,-162.5,155,,,,,,,155,B
5,Omar Nava,,M,1980,43,,,Raw,Masters 1,104.9,105,,,,,,145,-150,155,155,,,,,,,155,B
6,Irazu Velazquez,,M,1978,45,,,Raw,Masters 1,103.2,105,,,,,,140,145,-150,145,,,,,,,145,B
1,Jonathan Macías Flores,,M,1982,42,,,Raw,Masters 1,116.6,120,,,,,,150,160,166,166,,,,,,,166,B
2,German Cárdenas,,M,1983,40,,,Raw,Masters 1,110.9,120,,,,,,135,145,152.5,152.5,,,,,,,152.5,B
3,Bernabé Cubas Vargas,,M,1977,46,,,Raw,Masters 1,119.8,120,,,,,,140,147.5,150,150,,,,,,,150,B
4,Juventino Aguilar,,M,1977,46,,,Raw,Masters 1,107.8,120,,,,,,95,100,102.5,102.5,,,,,,,102.5,B
5,Guillermo Ortiz Caudillo,,M,1981,42,,,Raw,Masters 1,107,120,,,,,,75,80,-85,80,,,,,,,80,B
1,Wilhem Leibnitz Guido Vilalta,,M,1974,50,,,Raw,Masters 2,58.65,59,,,,,,95,102.5,-107.5,102.5,,,,,,,102.5,B
1,Jose Martin Martinez Rodriguez,,M,1966,57,,,Raw,Masters 2,90.05,93,,,,,,90,95,100,100,,,,,,,100,B
1,Anibal Nava,,M,1970,54,,,Raw,Masters 2,101.5,105,,,,,,125,130,-132.5,130,,,,,,,130,B
1,Francisco Javier Castro Verdugo,,M,1966,57,,,Raw,Masters 2,113.6,120,,,,,,85,90,-100,90,,,,,,,90,B
1,Jose Ariel Delgado Gastelum,,M,1958,65,,,Raw,Masters 3,82.85,83,,,,,,90,-95,-95,90,,,,,,,90,B
2,Jose Luis Monjaras Martinez,,M,1956,67,,,Raw,Masters 3,82.5,83,,,,,,55,60,65,65,,,,,,,65,B
1,Aylin Esthefania Cuevas Guzmán,,F,2004,20,,,Raw,Open,46.9,47,118,122.5,127.5,127.5,,57.5,62.5,-65,62.5,,143,155,-160,155,,345,SBD
2,Carina Chávez Granados,,F,1997,27,,,Raw,Open,43.1,47,122.5,127.5,133,133,,67.5,73,-74.5,73,,120,130,-140,130,,336,SBD
3,Karla Berenice García Izaguirre,,F,1995,28,,,Raw,Open,46.7,47,107.5,115,120,120,,62.5,-65,-65,62.5,,143.5,148.5,-155.5,148.5,,331,SBD
4,Mitzi Magali Vázquez Jiménez,,F,1998,25,,,Raw,Open,44.2,47,115,-122.5,122.5,122.5,,55,57.5,-60,57.5,,127.5,137.5,140,140,,320,SBD
1,Mónica Mercedes De La Torre Velasco,,F,1995,28,,,Raw,Open,52,52,140,142.5,-145.5,142.5,,92.5,96.5,-100,96.5,,152.5,-162.5,170,170,,409,SBD
2,Alegna Sofía Gastélum Esquer,,F,1998,25,,,Raw,Open,51.3,52,102.5,107.5,110,110,,-60,65,-67.5,65,,127.5,135,-140,135,,310,SBD
3,Diana Silva,,F,1994,29,,,Raw,Open,51.6,52,110,120,-122.5,120,,-50,-50,57.5,57.5,,115,125,132.5,132.5,,310,SBD
DQ,Ingrid Maldonado Vazquez,,F,2000,23,,,Raw,Open,52,52,-92.5,-97.5,-97.5,,,40,45,-50,45,,100,110,117.5,117.5,,,SBD
1,Julissa Isabel Padilla Hernández,,F,1997,27,,,Raw,Open,56.9,57,137.5,145,150,150,,67.5,72.5,-75,72.5,,137.5,145,147.5,147.5,,370,SBD
2,Tania Barceló,,F,1987,36,,,Raw,Open,55,57,120,130,-135,130,,70,77.5,-82.5,77.5,,135,145,157.5,157.5,,365,SBD
3,Salma,,F,2000,23,,,Raw,Open,55.4,57,137.5,145,-152.5,145,,80,-90,-90,80,,-137.5,140,-147.5,140,,365,SBD
4,Evelyn Campos,,F,1992,31,,,Raw,Open,56.6,57,-135,137.5,142.5,142.5,,57.5,60,-65,60,,147.5,155,160,160,,362.5,SBD
5,Aline Falcón,,F,1990,34,,,Raw,Open,56.1,57,122.5,130,135,135,,60,65,-67.5,65,,147.5,157.5,-167.5,157.5,,357.5,SBD
6,Estefanía Gutiérrez Gastélum,,F,1996,28,,,Raw,Open,56.75,57,112.5,117.5,-122.5,117.5,,57.5,60,-62.5,60,,132.5,140,-142.5,140,,317.5,SBD
7,Fátyma Rosales Basurto,,F,1994,29,,,Raw,Open,55.9,57,115,120,-130,120,,55,-60,-60,55,,130,135,140,140,,315,SBD
8,Jael Palomino,,F,1999,24,,,Raw,Open,53.6,57,-100,100,-105,100,,-67.5,67.5,-70,67.5,,-125,125,-127.5,125,,292.5,SBD
1,Travis Hernández,,M,2000,23,,,Raw,Open,58.75,59,180,-191,191,191,,90,-95,-95,90,,185,-195,200,200,,481,SBD
2,Yordy Ponce,,M,2001,22,,,Raw,Open,59,59,130,135,-140,135,,87.5,90,-95,90,,200,-202.5,-202.5,200,,425,SBD
3,Oscar Pérez #1,,M,1998,25,,,Raw,Open,54.2,59,-120,-120,122.5,122.5,,95,-100,-100,95,,130,142.5,150,150,,367.5,SBD
1,Aleck Robles,,M,1997,27,,,Raw,Open,64.9,66,190,-202.5,202.5,202.5,,130,-132.5,-132.5,130,,232.5,250,-253,250,,582.5,SBD
2,Alejandro Cubillas,,M,1999,24,,,Raw,Open,65.45,66,195,-202.5,202.5,202.5,,140,-145,145,145,,227.5,235,-242.5,235,,582.5,SBD
3,Saul Adrian,,M,1998,26,,,Raw,Open,64.95,66,190,200,205,205,,125,-135,-135,125,,225,242.5,-253,242.5,,572.5,SBD
4,Erick David Morales Montoya,,M,1999,24,,,Raw,Open,65.85,66,187.5,197.5,205,205,,117.5,122.5,-127.5,122.5,,200,212.5,-220,212.5,,540,SBD
5,Jaime Martínez,,M,2001,23,,,Raw,Open,61.6,66,170,172.5,180,180,,120,125,130,130,,200,205,-210,205,,515,SBD
6,Wiliam Cruz,,M,1988,36,,,Raw,Open,65.15,66,170,180,-190,180,,105,110,115,115,,190,205,217.5,217.5,,512.5,SBD
7,Luis Fernando Onofre Díaz,,M,1988,35,,,Raw,Open,65.8,66,170,180,-187.5,180,,105,110,-112.5,110,,-210,210,220,220,,510,SBD
8,Roberto Moran,,M,1994,29,,,Raw,Open,64.35,66,160,170,180,180,,110,117.5,-125,117.5,,195,205,-210,205,,502.5,SBD
9,Fabrizio Medina,,M,1993,30,,,Raw,Open,65.95,66,157.5,165,172.5,172.5,,120,125,-132.5,125,,180,190,200,200,,497.5,SBD
10,Roberto Barrueta Gordillo,,M,1999,24,,,Raw,Open,64.9,66,147.5,157.5,165,165,,102.5,112.5,120,120,,165,177.5,182.5,182.5,,467.5,SBD
DQ,Félix Ricardo Botello Urrutia,,M,1990,33,,,Raw,Open,65.2,66,147.5,157.5,165,165,,-87.5,-87.5,87.5,87.5,,-192.5,-200,-200,,,,SBD
1,Jiménez Quintero Santos Gabriel,,M,1992,31,,,Raw,Open,73.8,74,-210,227.5,235,235,,170,180,184,184,,-260,280,290.5,290.5,,709.5,SBD
2,Israel Cruz,,M,2000,24,,,Raw,Open,73.9,74,240,260,273,273,,147.5,155,160,160,,230,250,267.5,267.5,,700.5,SBD
3,Gabriel Segovia,,M,1997,26,,,Raw,Open,73.9,74,-232.5,240,-250,240,,140,147.5,-152.5,147.5,,262.5,275,285,285,,672.5,SBD
4,Jonathan Peña Muñoz,,M,1998,25,,,Raw,Open,74,74,187.5,200,207.5,207.5,,145,150,,150,,-215,225,242.5,242.5,,600,SBD
5,Derek Prud-Homme,,M,1997,26,,,Raw,Open,73.4,74,195,210,-217.5,210,,110,120,130,130,,210,225,235,235,,575,SBD
6,Luis David Uribe,,M,2000,23,,,Raw,Open,73.7,74,200,207.5,-215,207.5,,147.5,-150,-150,147.5,,200,212.5,-222.5,212.5,,567.5,SBD
7,Armando Hernandez,,M,1995,28,,,Raw,Open,73.9,74,-175,182.5,195,195,,125,132.5,-137.5,132.5,,215,225,-232.5,225,,552.5,SBD
8,Marcos Martinez,,M,1994,29,,,Raw,Open,73.8,74,180,-190,190,190,,125,130,135,135,,210,220,-225,220,,545,SBD
9,Jesús Alvarado Luna,,M,1995,29,,,Raw,Open,73.9,74,190,-200,-205,190,,-130,130,135,135,,190,207.5,220,220,,545,SBD
10,Luis Gerardo Camarillo Aranda,,M,1988,35,,,Raw,Open,73.8,74,180,192.5,197.5,197.5,,130,135,-137.5,135,,185,192.5,200,200,,532.5,SBD
11,Benjamin Sierra,,M,1987,36,,,Raw,Open,71.45,74,185,190,195,195,,112.5,-120,120,120,,190,210,-230,210,,525,SBD
12,Ivan Cruz,,M,1993,30,,,Raw,Open,72.8,74,170,180,185,185,,130,-137.5,-137.5,130,,180,200,-222.5,200,,515,SBD
13,Víctor Leyva Cuevas,,M,2000,23,,,Raw,Open,73.9,74,-185,185,200,200,,112.5,-120,120,120,,175,187.5,195,195,,515,SBD
14,Daniel Souza Calderón,,M,1997,26,,,Raw,Open,73.2,74,170,180,195,195,,105,-115,-120,105,,195,-205,-205,195,,495,SBD
15,Alejandro Cruz,,M,1993,30,,,Raw,Open,71.9,74,142.5,-165,-165,142.5,,100,102.5,105,105,,165,-175,175,175,,422.5,SBD
16,Arturo Aguirre Francisco,,M,1999,25,,,Raw,Open,74,74,-135,135,-152.5,135,,82.5,87.5,92.5,92.5,,175,185,192.5,192.5,,420,SBD
17,Armando Higareda,,M,1989,34,,,Raw,Open,72.3,74,135,140,147.5,147.5,,85,-90,-90,85,,165,175,185,185,,417.5,SBD
DQ,Tom Cabanzo Izucar,,M,1999,24,,,Raw,Open,,74,-205,-215,,,,-115,,,,,-235,,,,,,SBD
DQ,Luis Jesus Gómez Suárez,,M,1995,28,,,Raw,Open,73.6,74,205,-220,-220,205,,-130,130,-132.5,130,,-235,,,,,,SBD
1,Jorge Alonso Guzman Morales,,M,2000,24,,,Raw,Open,82.35,83,217.5,230,232.5,232.5,,145,150,152.5,152.5,,270,285,290,290,,675,SBD
2,Elber Montes,,M,1997,26,,,Raw,Open,82.95,83,-245,-252.5,252.5,252.5,,137.5,142.5,-145,142.5,,265,277.5,-290,277.5,,672.5,SBD
3,Kevin Popocatzin,,M,1996,28,,,Raw,Open,82.55,83,230,240,247.5,247.5,,155,160,-162.5,160,,250,262.5,-270,262.5,,670,SBD
4,Alexander Ramirez,,M,1997,26,,,Raw,Open,81.8,83,220,235,-240,235,,135,142.5,-147.5,142.5,,275,287.5,-297.5,287.5,,665,SBD
5,Joshua Aboytes,,M,1992,31,,,Raw,Open,82.35,83,-245,-245,245,245,,130,135,142.5,142.5,,265,275,-282.5,275,,662.5,SBD
6,José Santos Hernández Hernández,,M,2000,24,,,Raw,Open,81.45,83,220,240,-255,240,,135,-142.5,-142.5,135,,260,277.5,-287.5,277.5,,652.5,SBD
7,Michael Pelaez Espino,,M,1995,28,,,Raw,Open,81.5,83,220,-235,235,235,,167.5,-175.5,-175.5,167.5,,-245,245,-270,245,,647.5,SBD
8,Christian Rueda Figueroa,,M,1996,27,,,Raw,Open,81.8,83,225,235,245,245,,135,140,142.5,142.5,,-255,255,-267.5,255,,642.5,SBD
9,Oscar Jassiel Balderrama Romero,,M,1999,24,,,Raw,Open,82.1,83,195,207.5,212.5,212.5,,145,-147.5,-147.5,145,,260,-280,-280,260,,617.5,SBD
10,Manuel Alejandro Cervantes Valdez,,M,1999,24,,,Raw,Open,82.8,83,195,210,217.5,217.5,,95,102.5,-105,102.5,,-240,252.5,270,270,,590,SBD
11,Leonel Soriano,,M,2000,23,,,Raw,Open,81.6,83,200,215,225,225,,122.5,127.5,130,130,,220,-240,-245,220,,575,SBD
12,Hector Fernando Galindo Tellezgiron,,M,1994,29,,,Raw,Open,82.55,83,200,210,215,215,,125,130,135,135,,200,210,217.5,217.5,,567.5,SBD
13,Javier Alvarez,,M,1988,35,,,Raw,Open,81.8,83,210,-225,-225,210,,110,-120,-120,110,,230,245,-260,245,,565,SBD
14,Oliver Rodriguez,,M,2000,23,,,Raw,Open,81.6,83,180,192.5,200,200,,107.5,112.5,-120,112.5,,180,195,207.5,207.5,,520,SBD
15,Cesar Lopez,,M,2000,23,,,Raw,Open,82.15,83,157.5,170,175,175,,117.5,122.5,-125,122.5,,187.5,195,-200,195,,492.5,SBD
16,Carlos Alberto Reyes Montelongo,,M,1995,28,,,Raw,Open,79.8,83,160,175,-182.5,175,,97.5,-105,-107.5,97.5,,175,187.5,-192.5,187.5,,460,SBD
17,Roberto Monroy,,M,1985,38,,,Raw,Open,81.9,83,145,-165,-165,145,,97.5,102.5,107.5,107.5,,185,195,-210,195,,447.5,SBD
18,Luis Alberto Mercado Wong,,M,1998,25,,,Raw,Open,77.9,83,150,157.5,-162.5,157.5,,95,100,-102.5,100,,175,185,-195,185,,442.5,SBD
19,Omar Esteban Gutierrez Rodríguez,,M,2000,23,,,Raw,Open,81.3,83,135,150,-160,150,,90,-100,-100,90,,170,-185,-185,170,,410,SBD
DQ,Moisés Sandoval,,M,1987,36,,,Raw,Open,80.1,83,-225,-225,-225,,,-150,-150,,,,-235,,,,,,SBD
DQ,Jorge Alejandro Sumano Alatorre,,M,1990,33,,,Raw,Open,81.45,83,177.5,185,-192.5,185,,-107.5,107.5,-110,107.5,,-197.5,-197.5,-197.5,,,,SBD
DQ,Luis Francisco Rodríguez,,M,1996,27,,,Raw,Open,81.45,83,-230,-235,-235,,,130,140,-147.5,140,,240,250,-260,250,,,SBD
1,Dianet Verónica Mariano Huerta,,F,1999,24,,,Raw,Open,61.9,63,140,150,154,154,,-85,-85,85,85,,167.5,180,185,185,,424,SBD
2,Jazmin Gómez,,F,1994,29,,,Raw,Open,61.5,63,140,150,152.5,152.5,,80,85,-87.5,85,,150,165,-177.5,165,,402.5,SBD
3,Janet Vazquez,,F,1989,35,,,Raw,Open,62.9,63,140,150,155,155,,80,-82.5,-82.5,80,,150,157.5,162.5,162.5,,397.5,SBD
4,Mariana Claudian,,F,1986,37,,,Raw,Open,61,63,-145,145,-152.5,145,,50,55,60,60,,160,170,175,175,,380,SBD
5,Eli Martínez Flores,,F,1994,29,,,Raw,Open,62.4,63,127.5,132.5,-135,132.5,,70,-72.5,-72.5,70,,140,150,157.5,157.5,,360,SBD
6,Zulema Cruz,,F,2000,23,,,Raw,Open,62.4,63,115,122.5,127.5,127.5,,52.5,57.5,62.5,62.5,,132.5,145,157.5,157.5,,347.5,SBD
7,Diana Laura Lizcano,,F,1996,27,,,Raw,Open,62.5,63,105,112.5,122.5,122.5,,45,50,55,55,,147.5,152.5,155,155,,332.5,SBD
8,Betsy Mayrem Cervantes Jiménez,,F,1997,26,,,Raw,Open,62.8,63,110,-117.5,120,120,,55,60,-65,60,,130,140,150,150,,330,SBD
9,Rosio Alonzo Diaz,,F,1984,39,,,Raw,Open,62.8,63,115,122.5,127.5,127.5,,57.5,60,-65,60,,117.5,125,132.5,132.5,,320,SBD
10,Sonia Patricia Varela López,,F,1985,38,,,Raw,Open,61.6,63,120,-125,-125,120,,67.5,72.5,-75,72.5,,115,120,125,125,,317.5,SBD
11,Abigail Bañuelos,,F,1990,33,,,Raw,Open,62.1,63,115,-117.5,117.5,117.5,,47.5,-50,-50,47.5,,145,150,-152.5,150,,315,SBD
12,Grecia Cárdenas,,F,1995,28,,,Raw,Open,62.9,63,110,-115,-120,110,,60,65,67.5,67.5,,120,127.5,132.5,132.5,,310,SBD
13,Getnai Arriaga,,F,1996,27,,,Raw,Open,61.6,63,-115,115,-120,115,,45,47.5,-50,47.5,,130,135,140,140,,302.5,SBD
14,Grecia Aguilar Franco,,F,2000,23,,,Raw,Open,62.3,63,95,100,105,105,,-60,60,-65,60,,115,122.5,130,130,,295,SBD
15,Antea García,,F,1990,34,,,Raw,Open,62.3,63,105,115,-120,115,,52.5,-57.5,-57.5,52.5,,120,125,-130,125,,292.5,SBD
16,Alondra Rocha Barragón,,F,1996,27,,,Raw,Open,62.6,63,100,107.5,110,110,,40,-45,-45,40,,120,127.5,-135,127.5,,277.5,SBD
17,María Marcela Ponce Cortés,,F,2000,23,,,Raw,Open,59.1,63,85,-87.5,-90,85,,37.5,42.5,-45,42.5,,95,102.5,-107.5,102.5,,230,SBD
DQ,Mariana López #1,,F,1997,26,,,Raw,Open,62.9,63,-145,-145,-145,,,75,80,-82.5,80,,150,-160,-160,150,,,SBD
1,Mara Tiscareño,,F,2000,23,,,Raw,Open,68.6,69,170,177.5,182.5,182.5,,87.5,-90,90,90,,177.5,182.5,185,185,,457.5,SBD
2,Larissa Velazquez,,F,1992,31,,,Raw,Open,68.5,69,-160,-160,160,160,,-90,90,-92.5,90,,180,191,-193,191,,441,SBD
3,Yulissa Nuñez,,F,1997,27,,,Raw,Open,66.7,69,145,-155,-155,145,,85,-90,90,90,,150,157.5,165,165,,400,SBD
4,Arilí García,,F,1994,29,,,Raw,Open,68.5,69,135,-145,145,145,,70,-72.5,72.5,72.5,,160,170,175,175,,392.5,SBD
5,Jokebed Mata Aguilar,,F,1993,30,,,Raw,Open,66.9,69,145,-155,-157.5,145,,60,65,-67.5,65,,142.5,147.5,-170,147.5,,357.5,SBD
6,Sofía Gutiérrez Moreno,,F,2000,23,,,Raw,Open,67.6,69,100,-107.5,-107.5,100,,55,60,-62.5,60,,110,120,127.5,127.5,,287.5,SBD
7,Jasmin Acosta,,F,1989,34,,,Raw,Open,67.2,69,90,-100,100,100,,45,47.5,50,50,,125,130,135,135,,285,SBD
DQ,Julia Espinosa Paredes,,F,1986,37,,,Raw,Open,66.8,69,125,-130,-130,125,,-60,-60,-60,,,-150,150,,150,,,SBD
1,Sebastian Del Castillo Ramírez,,M,1998,25,,,Raw,Open,92.25,93,260,275,-285,275,,172.5,177.5,182.5,182.5,,300,315,-337.5,315,,772.5,SBD
2,Gabriel García Corona,,M,1975,48,,,Raw,Open,91.6,93,270,280,287.5,287.5,,162.5,170,-175,170,,270,280,290,290,,747.5,SBD
3,Jovanny Raúl Hernández Ramírez,,M,1999,24,,,Raw,Open,91.6,93,-265,-270,272.5,272.5,,132.5,140,145,145,,277.5,295,307.5,307.5,,725,SBD
4,Eduard Amauri Madera Acosta,,M,1996,27,,,Raw,Open,91.05,93,245,255,-265,255,,145,157.5,165,165,,270,287.5,302.5,302.5,,722.5,SBD
5,Ivan Serrano,,M,1997,26,,,Raw,Open,92.4,93,260,275,277.5,277.5,,162.5,167.5,-172.5,167.5,,245,260,270,270,,715,SBD
6,Armando Rene Quintal Sanchez,,M,1995,29,,,Raw,Open,92.25,93,235,242.5,,242.5,,152.5,160,-167.5,160,,272.5,287.5,-305,287.5,,690,SBD
7,Emmanuel Peña Beltran,,M,2000,23,,,Raw,Open,88.05,93,225,235,245,245,,130,135,137.5,137.5,,245,260,267.5,267.5,,650,SBD
8,Octavio Raúl Rocha Reyes,,M,1991,33,,,Raw,Open,92.5,93,250,-262.5,-262.5,250,,120,127.5,-130,127.5,,260,272.5,-277.5,272.5,,650,SBD
9,Jose Leon,,M,1997,26,,,Raw,Open,91.7,93,220,227.5,245,245,,135,-142.5,-142.5,135,,255,265,-270,265,,645,SBD
10,Fernando Plata,,M,1998,26,,,Raw,Open,91.1,93,217.5,227.5,235,235,,-137.5,137.5,142.5,142.5,,235,247.5,255,255,,632.5,SBD
11,William Trujillo,,M,1988,35,,,Raw,Open,92.2,93,-235,235,-250,235,,145,150,152.5,152.5,,235,245,-250,245,,632.5,SBD
12,Victor Manuel Aguirre Her,,M,1996,27,,,Raw,Open,90.75,93,210,222.5,227.5,227.5,,120,127.5,-132.5,127.5,,260,270,275,275,,630,SBD
13,Iván Ramón Díaz Gascón,,M,1997,26,,,Raw,Open,90.9,93,202.5,217.5,230,230,,125,132.5,-137.5,132.5,,225,237.5,250,250,,612.5,SBD
14,Christian Ramirez,,M,1989,34,,,Raw,Open,92,93,195,205,215,215,,-140,145,-152.5,145,,245,252.5,-260,252.5,,612.5,SBD
15,Omar Carrillo,,M,1990,34,,,Raw,Open,92.6,93,205,217.5,,217.5,,147.5,150,-155,150,,225,-235,235,235,,602.5,SBD
16,Bastián Cortés Aguirre,,M,1998,25,,,Raw,Open,92.8,93,192.5,202.5,212.5,212.5,,150,-155,-155,150,,225,237.5,-242.5,237.5,,600,SBD
17,Ricardo Alanis,,M,1996,27,,,Raw,Open,90.9,93,-195,197.5,210,210,,100,115,-125,115,,205,215,-225,215,,540,SBD
18,Carlos García Gutiérrez,,M,1997,27,,,Raw,Open,91.5,93,190,202.5,-212.5,202.5,,120,-125,-125,120,,190,205,-220,205,,527.5,SBD
19,Luis Ivan Arredondo Ramírez,,M,1996,27,,,Raw,Open,87.65,93,145,157.5,-167.5,157.5,,97.5,105,-110,105,,185,200,-207.5,200,,462.5,SBD
DQ,Eduardo Rodríguez Muñoz,,M,1997,26,,,Raw,Open,88.89,93,240,-252.5,257.5,257.5,,-140,-140,-140,,,255,270,-285,270,,,SBD
DQ,Rogelio Perez Olvera,,M,1991,33,,,Raw,Open,91.1,93,-160,-160,-160,,,105,-110,110,110,,180,185,195,195,,,SBD
DQ,Braulio Enrique Gómez Peralta,,M,1994,29,,,Raw,Open,91.45,93,-200,-210,-210,,,125,132.5,-137.5,132.5,,225,235,240,240,,,SBD
1,Ileana Mesta,,F,1993,30,,,Raw,Open,75,76,175,182.5,-190,182.5,,95,97.5,100,100,,182.5,190,196,196,,478.5,SBD
2,Karen Toral Vega,,F,1984,39,,,Raw,Open,74.8,76,145,155,-162.5,155,,82.5,-87.5,-87.5,82.5,,150,160,167.5,167.5,,405,SBD
3,Meredith Katherine Spoto,,F,1988,35,,,Raw,Open,75.4,76,125,135,-142.5,135,,-70,72.5,-77.5,72.5,,170,177.5,185,185,,392.5,SBD
4,Ada Brander,,F,1993,30,,,Raw,Open,74.9,76,110,120,132.5,132.5,,80,85,-87.5,85,,130,142.5,150,150,,367.5,SBD
5,Antonieta Betancourt,,F,1992,31,,,Raw,Open,75.3,76,112.5,122.5,-130,122.5,,70,75,80,80,,147.5,157.5,-170,157.5,,360,SBD
6,Grecia Venegas,,F,1994,29,,,Raw,Open,74.1,76,122.5,130,-137.5,130,,72.5,-77.5,-77.5,72.5,,135,142.5,150,150,,352.5,SBD
7,Andrea Yolet Olvera Morales,,F,1999,24,,,Raw,Open,75.6,76,110,120,130,130,,52.5,57.5,-65,57.5,,135,147.5,157.5,157.5,,345,SBD
8,Leslie Lizbeth Rocha,,F,2000,23,,,Raw,Open,73.9,76,115,122.5,127.5,127.5,,47.5,52.5,-55,52.5,,120,127.5,137.5,137.5,,317.5,SBD
9,Lluvia Berenice Chapéz Salas,,F,1985,38,,,Raw,Open,74.3,76,105,110,-115,110,,55,60,-65,60,,110,115,120,120,,290,SBD
10,Ana María Seseña Ortiz,,F,1984,39,,,Raw,Open,71.8,76,97.5,105,110,110,,50,52.5,-57.5,52.5,,107.5,120,125,125,,287.5,SBD
1,Lizbeth Ramírez Miguel,,F,2000,23,,,Raw,Open,82.8,84,167.5,172.5,-175,172.5,,70,-75,-75,70,,165,170,182.5,182.5,,425,SBD
2,Diana Jimena Valenzuela Duran,,F,1998,25,,,Raw,Open,81.2,84,175,185,187.5,187.5,,65,-70,-70,65,,165,170,-175,170,,422.5,SBD
3,Brenda Edith Chávez Aguilar,,F,1990,34,,,Raw,Open,81.6,84,125,135,145,145,,-60,60,62.5,62.5,,140,150,160,160,,367.5,SBD
4,Sara Cecilia Rodriguez Vargas,,F,2000,23,,,Raw,Open,81.9,84,125,-130,132.5,132.5,,62.5,65,67.5,67.5,,135,145,150,150,,350,SBD
5,Marina Soto,,F,1986,37,,,Raw,Open,82.1,84,120,-125,125,125,,65,70,-72.5,70,,120,130,135,135,,330,SBD
6,Fátima Conejo,,F,1997,26,,,Raw,Open,82.4,84,97.5,107.5,117.5,117.5,,57.5,60,62.5,62.5,,115,122.5,132.5,132.5,,312.5,SBD
7,Noelia Lerma Cerón,,F,1996,27,,,Raw,Open,81.7,84,92.5,100,105,105,,52.5,57.5,62.5,62.5,,117.5,122.5,130,130,,297.5,SBD
1,Zulema Valencia,,F,1993,30,,,Raw,Open,98.4,84+,150,152.5,160,160,,85,87.5,-92.5,87.5,,145,150,160,160,,407.5,SBD
2,Perla Maribel Romero Ramos,,F,1994,30,,,Raw,Open,88.6,84+,120,-130,-130,120,,52.5,55,57.5,57.5,,127.5,135,140,140,,317.5,SBD
1,Isaid Heriberto Zaleta Azamar,,M,2000,23,,,Raw,Open,103.8,105,275,290,302.5,302.5,,155,160,162.5,162.5,,287.5,305,-312.5,305,,770,SBD
2,Roberto Peltier,,M,1996,27,,,Raw,Open,104,105,275,282.5,,282.5,,182.5,-185,-185,182.5,,272.5,292.5,-312.5,292.5,,757.5,SBD
3,Erik Perez,,M,,,,,Raw,Open,104.5,105,260,267.5,280,280,,150,160,-165,160,,265,270,275,275,,715,SBD
4,Arturo Axel Arredondo Carrasco,,M,1999,24,,,Raw,Open,101.7,105,255,267.5,275,275,,155,160,162.5,162.5,,255,267.5,-272.5,267.5,,705,SBD
5,Benjamin Alexei Gomez Orozco,,M,1992,31,,,Raw,Open,99.75,105,255,-270,-270,255,,145,160,-175,160,,260,280,-300,280,,695,SBD
6,Diego Adame,,M,2000,23,,,Raw,Open,104.3,105,240,-250,255,255,,150,160,-165,160,,260,280,-300,280,,695,SBD
7,Samuel H. Mena,,M,1994,29,,,Raw,Open,104.9,105,220,240,245,245,,152.5,162.5,-172.5,162.5,,247.5,267.5,285,285,,692.5,SBD
8,Miguel Alvarado Cortes,,M,,,,,Raw,Open,96.1,105,-220,230,245,245,,145,152.5,-157.5,152.5,,240,255,265,265,,662.5,SBD
9,Felipe Arturo Saldaña Amezcua,,M,1991,32,,,Raw,Open,104.5,105,215,227.5,-240,227.5,,150,157.5,160,160,,235,250,265,265,,652.5,SBD
10,Sergio Emilio Trejo Gopar,,M,1999,24,,,Raw,Open,97.45,105,142.5,157.5,162.5,162.5,,75,80,85,85,,160,170,-177.5,170,,417.5,SBD
DQ,Guillermo Octavio Villanueva Espinosa,,M,1993,30,,,Raw,Open,101.1,105,,,,,,175,187.5,-190,187.5,,,,,,,,SBD
1,Maximiliano Barcenas,,M,1996,27,,,Raw,Open,113.7,120,305,317.5,,317.5,,182.5,187.5,190,190,,295,307.5,-315,307.5,,815,SBD
2,Aarón Sandoval,,M,2000,23,,,Raw,Open,116.9,120,287.5,297.5,-302.5,297.5,,182.5,190,-192.5,190,,280,290,300,300,,787.5,SBD
3,José Sánchez Báez,,M,2000,23,,,Raw,Open,112.7,120,275,290,-305,290,,170,180,185,185,,280,295,305,305,,780,SBD
4,Javier Velázquez,,M,1997,26,,,Raw,Open,118.7,120,285,295,-305,295,,160,-167.5,-167.5,160,,300,310,316,316,,771,SBD
5,Jesús Carmona,,M,1991,32,,,Raw,Open,116.4,120,250,270,275,275,,160,170,-172.5,170,,270,290,305,305,,750,SBD
6,Bernardo Cazárez Durán,,M,1997,26,,,Raw,Open,119.1,120,245,260,265,265,,170,177.5,180,180,,290,-312.5,,290,,735,SBD
7,Dylan Alejandro Rivera Estrada,,M,1999,24,,,Raw,Open,112.3,120,232.5,247.5,255,255,,155,162.5,170,170,,242.5,260,272.5,272.5,,697.5,SBD
8,Pedro Pablo Banda Zapata,,M,1997,26,,,Raw,Open,114.2,120,250,270,280,280,,130,-140,-140,130,,260,270,280,280,,690,SBD
9,Carlos Antonio Alvarado Macías,,M,1999,24,,,Raw,Open,116.3,120,245,257.5,262.5,262.5,,140,147.5,-150,147.5,,245,260,270,270,,680,SBD
10,Alberto Rodríguez,,M,1992,31,,,Raw,Open,119.1,120,-240,247.5,257.5,257.5,,140,147.5,-152.5,147.5,,235,245,255,255,,660,SBD
1,Fernando Gpe. López Medrano,,M,1992,31,,,Raw,Open,147.3,120+,270,285,300,300,,160,170,-175,170,,270,-285,-290,270,,740,SBD
2,Diego Armando Espinosa Salazar,,M,1989,34,,,Raw,Open,125.9,120+,230,240,-250,240,,125,-132.5,132.5,132.5,,260,270,285,285,,657.5,SBD
3,Juan Carlos García Vaquera,,M,1994,29,,,Raw,Open,145.4,120+,230,237.5,250,250,,145,-152.5,-152.5,145,,-250,250,-255,250,,645,SBD
4,Arturo Diaz,,M,1993,30,,,Raw,Open,154,120+,232.5,242.5,250,250,,-137.5,-137.5,137.5,137.5,,220,-232.5,-255,220,,607.5,SBD
5,Santiago Peltier Castillo,,M,2000,24,,,Raw,Open,130.4,120+,215,230,237.5,237.5,,-120,120,127.5,127.5,,210,225,232.5,232.5,,597.5,SBD
6,Ayrton Sánchez Esquivel,,M,1994,29,,,Raw,Open,123.9,120+,190,200,-207.5,200,,145,152.5,-160,152.5,,205,215,227.5,227.5,,580,SBD
7,Mario Aguila,,M,1998,25,,,Raw,Open,150,120+,-190,200,-210,200,,-110,110,-120,110,,230,240,-250,240,,550,SBD
