Name,Age,Sex,Division,Equipment,BodyweightKg,WeightClassKg,Squat1Kg,Squat2Kg,Squat3Kg,Best3SquatKg,Bench1Kg,Bench2Kg,Bench3Kg,Best3BenchKg,Deadlift1Kg,Deadlift2Kg,Deadlift3Kg,Best3DeadliftKg,TotalKg,Event,Place,BirthDate
Ginny Esposito,56,F,F_MR_4_APF,Raw,50.3,52,45,55,60,60,45,55,60,60,85,102.5,-105,102.5,222.5,SBD,1,
Tara Castaneda,53,F,F_MCR_3_AAPF,Wraps,90,90,87.5,100,110,110,52.5,57.5,-60,57.5,130,140,-150,140,307.5,SBD,1,
Sandra Stewart,50,F,F_MCR_3_APF,Wraps,84.6,90,92.5,-105,105,105,70,77.5,-80,77.5,112.5,122.5,127.5,127.5,310,SBD,1,
Anna Stamets,48,F,F_MCR_2_APF,Wraps,106.25,90+,-125,-125,-125,,,,,,,,,,,SBD,DQ,
Rachael Burton,36,F,F_SCR_AAPF,Wraps,70.5,75,-82.5,82.5,-100,82.5,42.5,47.5,55,55,102.5,112.5,127.5,127.5,265,SBD,1,
Angela Williams #2,34,F,F_SCR_AAPF,Wraps,81.4,82.5,-115,115,120,120,57.5,60,65,65,147.5,157.5,165,165,350,SBD,1,
Daisy Quinn,39,F,F_SR_APF,Raw,100.7,90+,-152.5,-152.5,-152.5,,67.5,75,-80,75,157.5,165,170,170,,SBD,DQ,
Emily Dressel,20,F,F_JCR_APF,Raw,79.7,82.5,65,70,77.5,77.5,57.5,,,57.5,112.5,125,-137.5,125,260,SBD,1,
Brady Stewart #2,18,F,F_TCR_3_APF,Wraps,106.7,90+,95,105,-110,105,47.5,52.5,-55,52.5,112.5,127.5,-137.5,127.5,285,SBD,1,
Lilly Lorber,17,F,F_TCR_2_APF,Wraps,49.5,52,60,-65,-70,60,35,40,42.5,42.5,77.5,85,92.5,92.5,195,SBD,1,
Dyan Donofrio,38,F,F_OCR_AAPF,Wraps,64.1,67.5,-95,95,-102.5,95,52.5,55,-60,55,85,95,-100,95,245,SBD,1,
Sarah Gilpin,31,F,F_OCR_AAPF,Wraps,70.4,75,-92.5,92.5,-97.5,92.5,42.5,50,-55,50,110,-125,127.5,127.5,270,SBD,1,
Alexis Lewis,27,F,F_OCR_AAPF,Wraps,83,90,122.5,127.5,137.5,137.5,60,62.5,67.5,67.5,112.5,125,-147.5,125,330,SBD,1,
Ashleigh Anderson,25,F,F_OCR_APF,Wraps,52,52,80,87.5,97.5,97.5,42.5,47.5,50,50,97.5,107.5,120,120,267.5,SBD,1,
Maria Chang,41,F,F_OCR_APF,Wraps,78.5,82.5,132.5,142.5,150,150,77.5,82.5,87.5,87.5,152.5,162.5,172.5,172.5,410,SBD,1,
Danielle Wyka,28,F,F_OR_AAPF,Raw,81.75,82.5,107.5,117.5,125,125,60,65,-72.5,65,127.5,137.5,140,140,330,SBD,1,
Shelby Ceis,32,F,F_OR_AAPF,Raw,81.4,82.5,92.5,97.5,102.5,102.5,55,-57.5,57.5,57.5,100,105,115,115,275,SBD,2,
Krista Luperon,31,F,F_OR_APF,Raw,89.45,90,142.5,162.5,172.5,172.5,80,92.5,-95,92.5,170,185,190,190,455,SBD,1,
Gary Dee Bishop,57,M,M_MES_4_APF,Single-ply,108.75,110,255,275,-290,275,-192.5,-192.5,-210,,,,,,,SBD,DQ,
Terry Jacobs,59,M,M_MCR_4_APF,Wraps,89.1,90,-230,230,250,250,130,140,-150,140,230,-240,,230,620,SBD,1,
David Stewart #4,52,M,M_MCR_3_APF,Wraps,103.05,110,125,137.5,147.5,147.5,125,137.5,142.5,142.5,145,167.5,190,190,480,SBD,1,
Ryan Paul Farnham,40,M,M_MES_1_APF,Single-ply,100.85,110,-227.5,-235,235,235,85,187.5,,187.5,182.5,,,182.5,605,SBD,1,
Sean Mathison,44,M,M_MCR_1_APF,Wraps,79.55,82.5,160,172.5,185,185,137.5,142.5,145,145,195,212.5,-227.5,212.5,542.5,SBD,1,
Racine Milfort,33,M,M_SCR_APF,Wraps,99.75,100,-250,277.5,280,280,-180,180,190,190,207.5,227.5,252.5,252.5,722.5,SBD,1,
Shawn Beebe,36,M,M_SR_APF,Raw,121.2,125,215,235,-247.5,235,167.5,185,-195,185,225,245,-262.5,245,665,SBD,1,
Arpan Jani,22,M,M_JR_APF,Raw,67.55,75,127.5,142.5,145,145,-92.5,92.5,-110,92.5,170,180,190,190,427.5,SBD,1,
Ethan Hall #2,15,M,M_TES_1_AAPF,Single-ply,59.7,60,-85,85,-115,85,55,60,-62.5,60,102.5,125,137.5,137.5,282.5,SBD,1,
William Mistal,15,M,M_TCR_1_APF,Wraps,108.55,110,-102.5,122.5,137.5,137.5,60,-80,-80,60,125,145,160,160,357.5,SBD,1,
Dean Carlton Harris,10,M,M_YR_APF,Raw,44.85,52,42.5,47.5,50,50,30,-32.5,-32.5,30,67.5,77.5,-82.5,77.5,157.5,SBD,1,
Alexander Mangione,14,M,M_TR_1_APF,Raw,71.4,75,60,72.5,85,85,45,60,-65,60,80,100,110,110,255,SBD,1,
Ryan Paul Farnham,40,M,M_OES_APF,Single-ply,100.85,110,-227.5,-235,235,235,85,187.5,,187.5,182.5,,,182.5,605,SBD,1,
Robert Tolley,30,M,M_OEM_APF,Multi-ply,112.85,125,-420,420,432.5,432.5,-297.5,-297.5,297.5,297.5,302.5,322.5,-330,322.5,1052.5,SBD,1,
Andy Polk,36,M,M_OEM_APF,Multi-ply,124.25,125,372.5,395,410,410,215,-227.5,-227.5,215,297.5,320,330,330,955,SBD,2,
Dylan Maki,34,M,M_OCR_APF,Wraps,81.2,82.5,160,170,182.5,182.5,142.5,155,-165,155,192.5,210,-217.5,210,547.5,SBD,1,
Sean Mathison,44,M,M_OCR_APF,Wraps,79.55,82.5,160,172.5,185,185,137.5,142.5,145,145,195,212.5,-227.5,212.5,542.5,SBD,2,
Jason Rosario,36,M,M_OCR_APF,Wraps,89.85,90,272.5,-287.5,287.5,287.5,165,175,-180,175,282.5,292.5,,292.5,755,SBD,1,
Adam Ramirez,24,M,M_OCR_APF,Wraps,88.6,90,152.5,170,182.5,182.5,107.5,110,-117.5,110,202.5,215,227.5,227.5,520,SBD,2,
Marcos Rivera,22,M,M_OCR_APF,Wraps,87.85,90,165,-185,-185,165,102.5,-112.5,112.5,112.5,192.5,202.5,212.5,212.5,490,SBD,3,
Denis Rodyakin,32,M,M_OCR_APF,Wraps,100,100,255,275,300,300,145,155,160,160,225,235,250,250,710,SBD,1,
Darren Price,25,M,M_OCR_APF,Wraps,97.1,100,255,265,-272.5,265,175,-187.5,-187.5,175,255,-265,-265,255,695,SBD,2,
Nicholas Altensee,25,M,M_OCR_APF,Wraps,98.45,100,187.5,-197.5,202.5,202.5,132.5,142.5,-152.5,142.5,210,225,237.5,237.5,582.5,SBD,3,
Vincent Vargas,32,M,M_OCR_APF,Wraps,93.75,100,85,100,115,115,67.5,82.5,-90,82.5,142.5,157.5,-165,157.5,355,SBD,4,
Guillermo Ramirez,31,M,M_OCR_APF,Wraps,108.35,110,190,207.5,215,215,-137.5,145,150,150,207.5,227.5,250,250,615,SBD,1,
Eric Guzman,32,M,M_OCR_APF,Wraps,103.95,110,170,175,190,190,120,-130,130,130,170,180,195,195,515,SBD,2,
Kevin Velazquez,23,M,M_OCR_APF,Wraps,114.25,125,-142.5,175,-190,175,82.5,92.5,-102.5,92.5,142.5,175,195,195,462.5,SBD,1,
Gabriel Wood,32,M,M_OCR_APF,Wraps,123.75,125,265,282.5,-307.5,282.5,170,185,-205,185,-272.5,,,,,SBD,DQ,
Judith Reed,74,F,F_MR_7_APF,Raw,67.5,67.5,,,,,52.5,55,-57.5,55,,,,,55,B,1,
Sonji Baldwin,53,F,F_MR_3_APF,Raw,72.4,75,,,,,120,132.5,-140,132.5,,,,,132.5,B,1,
Angela Bivens,41,F,F_MR_1_APF,Raw,82.2,82.5,,,,,80,90,-92.5,90,,,,,90,B,1,
Angela Bivens,41,F,F_OR_APF,Raw,82.2,82.5,,,,,80,90,-92.5,90,,,,,90,B,1,
John LaComb,54,M,M_MES_3_APF,Single-ply,122.05,125,,,,,-220,-220,,,,,,,,B,DQ,
Ethen Norton,38,M,M_SR_APF,Raw,115.55,125,,,,,152.5,-170,-170,152.5,,,,,152.5,B,1,
Joshua Schmidt,13,M,M_TES_1_AAPF,Single-ply,53.7,56,,,,,35,40,-42.5,40,,,,,40,B,1,
Jacob Schmidt,15,M,M_TES_1_AAPF,Single-ply,64.95,67.5,,,,,70,-77.5,77.5,77.5,,,,,77.5,B,1,
John LaComb,54,M,M_OES_APF,Single-ply,122.05,125,,,,,-220,-220,,,,,,,,B,DQ,
Darren Price,25,M,M_OR_APF,Raw,97.1,100,,,,,175,-187.5,-187.5,175,,,,,175,B,1,
Judith Reed,74,F,F_MR_7_APF,Raw,67.5,67.5,,,,,,,,,102.5,110,-112.5,110,110,D,1,
Sonji Baldwin,53,F,F_MR_3_APF,Raw,72.4,75,,,,,,,,,167.5,182.5,-192.5,182.5,182.5,D,1,
Angela Bivens,41,F,F_MR_1_APF,Raw,82.2,82.5,,,,,,,,,172.5,185,-195,185,185,D,1,
Angela Bivens,41,F,F_OR_APF,Raw,82.2,82.5,,,,,,,,,172.5,185,-195,185,185,D,1,
Gary Johnson #2,69,M,M_MR_6_AAPF,Raw,82,82.5,,,,,,,,,140,-145,,140,140,D,1,
Gary Johnson #2,69,M,M_MR_6_APF,Raw,82,82.5,,,,,,,,,140,-145,,140,140,D,1,
Matt Maini,53,M,M_MR_3_AAPF,Raw,117.3,125,,,,,,,,,265,282.5,-287.5,282.5,282.5,D,1,
Matt Maini,53,M,M_MR_3_APF,Raw,117.3,125,,,,,,,,,265,282.5,-287.5,282.5,282.5,D,1,
Ethen Norton,38,M,M_SES_APF,Single-ply,115.55,125,,,,,,,,,270,285,-300,285,285,D,1,
Dean Carlton Harris,10,M,M_YR_APF,Raw,44.85,52,,,,,,,,,67.5,77.5,-82.5,77.5,77.5,D,1,
Charlie Simmons #1,32,M,M_OR_APF,Raw,107.3,110,,,,,137.5,145,-147.5,145,212.5,227.5,235,235,380,BD,1,
